INDEX VERSION 1.126+/Users/iMoqii/Documents/Reach/.metadata/.plugins/org.eclipse.jdt.core
2073714722.index
796662752.index
1384487945.index
2276114108.index
1852345425.index
886486710.index
4247141962.index
1400653628.index
1561675100.index
2179683560.index
187947953.index
73802678.index
2545238116.index
3712507179.index
1523100079.index
403131604.index
4133420628.index
3321539481.index
1001839020.index
2161202968.index
368462846.index
1664740240.index
3755154477.index
2928386375.index
4291058667.index
4151699077.index
3565027721.index
1833648217.index
2148356886.index
1749520324.index
2196091305.index
2187559136.index
48276997.index
429421388.index
3966064240.index
1726069608.index
156905802.index
3902154323.index
1819685514.index
1373276333.index
2315485551.index
4122244616.index
1271342938.index
1245309186.index
3459865394.index
3302703152.index
3935944763.index
3630079742.index
18908155.index
121191223.index
1989473878.index
1331878739.index
337804228.index
1252217024.index
1509118062.index
353965938.index
3266567714.index
3014296530.index
3205270072.index
4269109804.index
2211197392.index
3966847310.index
3165949590.index
1660167734.index
522095337.index
308786522.index
3098540202.index
1982411780.index
229567752.index
1360304832.index
1425816544.index
